{
  "_id": "ghc",
  "tutorials": {
    "GHC 101": {
      "interp": "gheval",
      "title": "Conceptos básicos Haskell usando GHC",
      "description": "Una introducción rápida a la estructura y principales características del lenguaje, como inicio rápido a los elementos que se desarrollarán en posteriores tutoriales",
      "tutors": [
        "admin@tutoride.com"
      ],
      "contents": [
        {
          "template": "GHC-01",
          "allowed": [],
          "notallowed": []
        }
      ]
    }
  },
  "templates": {
    "Default": {
      "interp": "gheval",
      "type": "static",
      "contents": [
        {
          "name": "includes.hs",
          "type": "file",
          "content": ""
        },
        {
          "name": "readme.md",
          "type": "file",
          "content": "Leeme del proyecto\n=================="
        }
      ]
    },
    "VizHaskell": {
      "interp": "gheval",
      "type": "static",
      "contents": [
        {
          "name": "includes.hs",
          "type": "file",
          "content": "-- Funciones necesarias para la salida de datos\nimport Data.Aeson                         -- (encode)\nimport Data.ByteString.Lazy.Char8(unpack) -- (unpack)\nimport VizHaskell.TreeRepresentation      -- (tree contract)\nimport VizHaskell.StringRepresentation    -- (simple string)\nimport VizHaskell.RawRepresentation       -- (raw JSON contract)\nimport VizHaskell.Core                    -- (support lib)"
        },
        {
          "name": "readme.md",
          "type": "file",
          "content": "# Leeme del proyecto VizHaskell"
        },
        {
          "name": "macros.json",
          "type": "file",
          "content": "{\":reptot\":\"putStrLn $ render (RepresentationTree(RepresentationTree RepresentationString)) {0}\",\":reptree\":\"putStrLn $ render (RepresentationTree RepresentationString) {0}\",\":repstr\":\"putStrLn $ render RepresentationString {0}\",\":repraw\":\"putStrLn $ render RepresentationRaw {0}\"}"
        }
      ]
    }
  }
}
{
  "_id": "lua",
  "tutorials": {
    "Lua 101": {
      "title": "Conceptos básicos LUA",
      "interp": "lua",
      "description": "Una introducción rápida a la estructura y principales características del lenguaje, como inicio rápido a los elementos que se desarrollarán en posteriores tutoriales",
      "tutors": [
        "admin@tutoride.com"
      ],
      "contents": [
        "lua101-01"
      ]
    }
  },
  "templates": {
    "Default": {
      "interp": "",
      "type": "static",
      "contents": [
        {
          "name": "includes.lua",
          "type": "file",
          "content": ""
        }
      ]
    }
  }
}
{
  "_id": "python",
  "tutorials": {
    "Python for dummies": {
      "title": "Conceptos básicos python",
      "interp": "lua",
      "description": "Una introducción rápida a la estructura y principales características del lenguaje, como inicio rápido a los elementos que se desarrollarán en posteriores tutoriales",
      "tutors": [
        "admin@tutoride.com"
      ],
      "contents": [
        "python 001"
      ]
    }
  },
  "templates": {
    "Default": {
      "interp": "",
      "type": "static",
      "contents": [
        {
          "name": "includes.py",
          "type": "file",
          "content": "import sys\nsys.ps1 = \"\""
        }
      ]
    }
  }
}
{
  "_id": "sql",
  "tutorials": {},
  "templates": {
    "Default": {
      "interp": "",
      "type": "static",
      "contents": []
    }
  }
}
